[gd_resource type="Theme" load_steps=6 format=3 uid="uid://5ji3xr2trd4p"]

[ext_resource type="Texture2D" uid="uid://bxe6xavm6hurj" path="res://Assets/UI/Menu/ButtonCubes.png" id="1_df7nv"]
[ext_resource type="FontFile" uid="uid://cxqeln67cm58a" path="res://Assets/Fonts/DEJAVUSANS-OBLIQUE.TTF" id="2_ebbte"]
[ext_resource type="FontFile" uid="uid://bfingl6l1pten" path="res://Assets/Fonts/DEJAVUSANS.TTF" id="2_t3s42"]

[sub_resource type="StyleBoxTexture" id="StyleBoxTexture_t6sww"]
content_margin_top = 13.0
content_margin_bottom = 13.0
texture = ExtResource("1_df7nv")
texture_margin_left = 48.0
texture_margin_right = 48.0
axis_stretch_horizontal = 1
region_rect = Rect2(0, 0, 131, 64)
draw_center = false

[sub_resource type="StyleBoxEmpty" id="StyleBoxEmpty_grk8n"]
content_margin_top = 13.0
content_margin_bottom = 13.0

[resource]
default_font = ExtResource("2_t3s42")
default_font_size = 32
Button/styles/focus = SubResource("StyleBoxTexture_t6sww")
Button/styles/hover = SubResource("StyleBoxTexture_t6sww")
Button/styles/normal = SubResource("StyleBoxEmpty_grk8n")
VersionNumberLabel/base_type = &"Label"
VersionNumberLabel/font_sizes/font_size = 16
VersionNumberLabel/fonts/font = ExtResource("2_ebbte")
