[gd_scene load_steps=2 format=3 uid="uid://gdodjlxda36s"]

[ext_resource type="Script" path="res://addons/dialogic_additions/Portal/ui_portal_end.gd" id="1_37asv"]

[node name="Choice_End" type="HBoxContainer"]
anchors_preset = 15
anchor_right = 1.0
anchor_bottom = 1.0
offset_bottom = -625.0
grow_horizontal = 2
grow_vertical = 2
script = ExtResource("1_37asv")

[node name="AddChoice" type="Button" parent="."]
layout_mode = 2

[node name="Label" type="Label" parent="."]
layout_mode = 2

[connection signal="pressed" from="AddChoice" to="." method="_on_add_choice_pressed"]
