[gd_resource type="Resource" script_class="DialogicStyle" load_steps=5 format=3 uid="uid://d2ar10wfe8tii"]

[ext_resource type="Script" path="res://addons/dialogic/Resources/dialogic_style_layer.gd" id="1_ba06a"]
[ext_resource type="Script" path="res://addons/dialogic/Resources/dialogic_style.gd" id="2_bxj60"]
[ext_resource type="PackedScene" uid="uid://cx3dlvw3hbpm2" path="res://Scenes/Levels/Level2.tscn" id="2_ue0un"]

[sub_resource type="Resource" id="Resource_er4va"]
script = ExtResource("1_ba06a")
scene = ExtResource("2_ue0un")
overrides = {}

[resource]
script = ExtResource("2_bxj60")
name = "Level2"
base_overrides = {}
layers = Array[ExtResource("1_ba06a")]([SubResource("Resource_er4va")])
metadata/_latest_layer = 0
