[gd_scene load_steps=8 format=3 uid="uid://bsbnduuv6kfxe"]

[ext_resource type="TextMesh" uid="uid://7y8x3yq3okct" path="res://Scenes/Titles/Title_mesh.tres" id="1_im0t1"]
[ext_resource type="Script" path="res://Scenes/Titles/Title.gd" id="2_2qvhk"]
[ext_resource type="AudioStream" uid="uid://blio4n1huua7n" path="res://Assets/audio/Intro/Title.ogg" id="3_cccqw"]

[sub_resource type="BoxShape3D" id="BoxShape3D_hsow4"]
size = Vector3(11, 50, 6)

[sub_resource type="Animation" id="Animation_ba18o"]
length = 0.001
tracks/0/type = "value"
tracks/0/imported = false
tracks/0/enabled = true
tracks/0/path = NodePath(".:mesh:offset")
tracks/0/interp = 1
tracks/0/loop_wrap = true
tracks/0/keys = {
"times": PackedFloat32Array(0),
"transitions": PackedFloat32Array(1),
"update": 0,
"values": [Vector2(0, 0)]
}

[sub_resource type="Animation" id="Animation_tnbnn"]
resource_name = "slide_down"
tracks/0/type = "value"
tracks/0/imported = false
tracks/0/enabled = true
tracks/0/path = NodePath(".:mesh:offset")
tracks/0/interp = 1
tracks/0/loop_wrap = true
tracks/0/keys = {
"times": PackedFloat32Array(0, 1),
"transitions": PackedFloat32Array(1, 1),
"update": 0,
"values": [Vector2(0, 400), Vector2(0, 0)]
}

[sub_resource type="AnimationLibrary" id="AnimationLibrary_qkk1j"]
_data = {
"RESET": SubResource("Animation_ba18o"),
"slide_down": SubResource("Animation_tnbnn")
}

[node name="Title" type="MeshInstance3D"]
visibility_range_begin = 3.0
visibility_range_begin_margin = 0.5
visibility_range_end = 15.0
visibility_range_end_margin = 0.5
visibility_range_fade_mode = 1
mesh = ExtResource("1_im0t1")
script = ExtResource("2_2qvhk")

[node name="Area3D" type="Area3D" parent="."]
transform = Transform3D(1, 0, 0, 0, 1, 0, 0, 0, 1, -0.0573756, -0.0215063, 1.1127)

[node name="CollisionShape3D" type="CollisionShape3D" parent="Area3D"]
transform = Transform3D(1, 0, 0, 0, 1, 0, 0, 0, 1, 0, -2, 0.5)
shape = SubResource("BoxShape3D_hsow4")

[node name="AudioStreamPlayer3D" type="AudioStreamPlayer3D" parent="Area3D"]
stream = ExtResource("3_cccqw")
attenuation_model = 2
volume_db = -6.0
bus = &"VO"

[node name="AnimationPlayer" type="AnimationPlayer" parent="."]
libraries = {
"": SubResource("AnimationLibrary_qkk1j")
}
