[gd_scene load_steps=5 format=3 uid="uid://dtpmgpd6rpdcc"]

[ext_resource type="Script" path="res://Scenes/Portals/Portal.gd" id="1_mrp44"]
[ext_resource type="Texture2D" uid="uid://b8q44ipg8a3cq" path="res://Assets/Textures/Grids/Black.png" id="2_qduu0"]

[sub_resource type="StandardMaterial3D" id="StandardMaterial3D_h7ix1"]
albedo_texture = ExtResource("2_qduu0")

[sub_resource type="BoxShape3D" id="BoxShape3D_w676p"]
size = Vector3(3, 3.5, 1)

[node name="Portal" type="Area3D" node_paths=PackedStringArray("text_node")]
script = ExtResource("1_mrp44")
text_node = NodePath("Label3D")

[node name="CSGBox3D" type="CSGBox3D" parent="."]
transform = Transform3D(1, 0, 0, 0, 1, 0, 0, 0, 1, 0, 2, 0)
size = Vector3(5, 4, 1)
material = SubResource("StandardMaterial3D_h7ix1")

[node name="CSGBox3D" type="CSGBox3D" parent="CSGBox3D"]
transform = Transform3D(1, 0, 0, 0, 1, 0, 0, 0, 1, 0, -0.25, 0)
operation = 2
size = Vector3(3, 3.5, 1)

[node name="CollisionShape3D" type="CollisionShape3D" parent="."]
transform = Transform3D(1, 0, 0, 0, 1, 0, 0, 0, 1, 0, 1.75, 0)
shape = SubResource("BoxShape3D_w676p")

[node name="Label3D" type="Label3D" parent="."]
transform = Transform3D(1, 0, 0, 0, 1, 0, 0, 0, 1, 0, 4.69301, 0)
text = "Hello world"
font_size = 100
outline_size = 20
