[gd_scene load_steps=6 format=3 uid="uid://bhbijqclbto4s"]

[ext_resource type="Script" path="res://Scenes/Portals/Portal.gd" id="1_ai613"]
[ext_resource type="Texture2D" uid="uid://dkpqh8de7tb3n" path="res://Assets/Textures/Grids/Green.png" id="2_60px3"]
[ext_resource type="PackedScene" uid="uid://bxtst0axgnst8" path="res://Assets/Models/Props/Portal.glb" id="3_0ngku"]

[sub_resource type="StandardMaterial3D" id="StandardMaterial3D_3718j"]
albedo_texture = ExtResource("2_60px3")
emission_enabled = true
emission = Color(0, 0, 1, 1)
emission_energy_multiplier = 8.24

[sub_resource type="BoxShape3D" id="BoxShape3D_w676p"]
size = Vector3(3, 3.5, 1)

[node name="Portal" type="Area3D" node_paths=PackedStringArray("text_node")]
script = ExtResource("1_ai613")
text_node = NodePath("Label3D")

[node name="CSGBox3D" type="CSGBox3D" parent="."]
transform = Transform3D(1, 0, 0, 0, 1, 0, 0, 0, 1, 0, 2, 0)
visible = false
size = Vector3(5, 4, 1)
material = SubResource("StandardMaterial3D_3718j")

[node name="CSGBox3D" type="CSGBox3D" parent="CSGBox3D"]
transform = Transform3D(1, 0, 0, 0, 1, 0, 0, 0, 1, 0, -0.25, 0)
operation = 2
size = Vector3(3, 3.5, 1)

[node name="CollisionShape3D" type="CollisionShape3D" parent="."]
transform = Transform3D(1, 0, 0, 0, 1, 0, 0, 0, 1, 0, 1.75, 0)
shape = SubResource("BoxShape3D_w676p")

[node name="Portal" parent="." instance=ExtResource("3_0ngku")]
transform = Transform3D(-6.55671e-08, 0, -1.5, 0, 1.5, 0, 1.5, 0, -6.55671e-08, 0, 0, 0)

[node name="Label3D" type="Label3D" parent="."]
transform = Transform3D(1, 0, 0, 0, 1, 0, 0, 0, 1, 0, 4.98253, 0)
text = "Hello world"
font_size = 100
outline_size = 20
